Data Engineering and Validation - 2 Initial Pipeline Upgrades
…
Table scan generated with pointblank.

Okay, so we’ve already narrowed our problem down to a certain set of columns where the data seems to be almost entirely missing. Maybe it’s on purpose and we’re fine?

penguins_remote_improved %>% 
  clean_names() %>% 
  select(c(culmen_length_mm:body_mass_g,delta_15_n_o_oo,delta_13_c_o_oo))

# A tibble: 344 × 6
   culmen_length_mm culmen_depth_mm flipper_length_mm body_mass_g
   <list>           <list>          <list>            <list>     
 1 <dbl [1]>        <dbl [1]>       <dbl [1]>         <dbl [1]>  
 2 <dbl [1]>        <dbl [1]>       <dbl [1]>         <dbl [1]>  
 3 <dbl [1]>        <dbl [1]>       <dbl [1]>         <dbl [1]>  
 4 <chr [1]>        <chr [1]>       <chr [1]>         <chr [1]>  
 5 <dbl [1]>        <dbl [1]>       <dbl [1]>         <dbl [1]>  
 6 <dbl [1]>        <dbl [1]>       <dbl [1]>         <dbl [1]>  
 7 <dbl [1]>        <dbl [1]>       <dbl [1]>         <dbl [1]>  
 8 <dbl [1]>        <dbl [1]>       <dbl [1]>         <dbl [1]>  
 9 <dbl [1]>        <dbl [1]>       <dbl [1]>         <dbl [1]>  
10 <dbl [1]>        <dbl [1]>       <dbl [1]>         <dbl [1]>  
# ℹ 334 more rows
# ℹ 2 more variables: delta_15_n_o_oo <list>, delta_13_c_o_oo <list>
…
Aha! It looks like the value “NA” is getting read as a character variable rather than a missing value. This could be what’s going on with our initial read using read_sheet() Let’s investigate.

penguins_na_fix <- read_sheet(sheet_id, na = "NA")

penguins_na_fix %>% 
  clean_names() %>% 
  select(c(culmen_length_mm:body_mass_g,delta_15_n_o_oo,delta_13_c_o_oo))

# A tibble: 344 × 6
   culmen_length_mm culmen_depth_mm flipper_length_mm body_mass_g
              <dbl>           <dbl>             <dbl>       <dbl>
 1             39.1            18.7               181        3750
 2             39.5            17.4               186        3800
 3             40.3            18                 195        3250
 4             NA              NA                  NA          NA
 5             36.7            19.3               193        3450
 6             39.3            20.6               190        3650
 7             38.9            17.8               181        3625
 8             39.2            19.6               195        4675
 9             34.1            18.1               193        3475
10             42              20.2               190        4250
# ℹ 334 more rows
# ℹ 2 more variables: delta_15_n_o_oo <dbl>, delta_13_c_o_oo <dbl>
…
Table scan generated with pointblank.

Down to ~6% missing data! Most of that missingness seems concentrated in the “comments” column, which we can take a quick peek at.

penguins_na_fix %>% 
  clean_names() %>% 
  select(comments)

# A tibble: 344 × 1
   comments                             
   <chr>                                
 1 Not enough blood for isotopes.       
 2 <NA>                                 
 3 <NA>                                 
 4 Adult not sampled.                   
 5 <NA>                                 
 6 <NA>                                 
 7 Nest never observed with full clutch.
 8 Nest never observed with full clutch.
 9 No blood sample obtained.            
10 No blood sample obtained for sexing. 
# ℹ 334 more rows
…
